\relax 
\@writefile{toc}{\contentsline {section}{\numberline {1}Colores en textos}{1}}
\@writefile{toc}{\contentsline {section}{\numberline {2}Colores en RGB}{1}}
\@writefile{toc}{\contentsline {section}{\numberline {3}Colores en CMYK}{1}}
\@writefile{toc}{\contentsline {section}{\numberline {4}Colores en Gray}{1}}
\@writefile{toc}{\contentsline {section}{\numberline {5}Crear un nuevo color}{1}}
\@writefile{toc}{\contentsline {section}{\numberline {6}Cajas de colores}{1}}
\@writefile{toc}{\contentsline {section}{\numberline {7}Colores en textos}{2}}
